{"ADDRESS": "", 
"ATLAS_PAGE": "00001", 
"CITY": "TULSA", 
"CLASS": "NA", 
"COMPLETED": 1, 
"CONDITION": "", 
"DATE_INSPE": "2003-08-08", 
"DATE_INSTA": null, 
"DIRECTION": "", 
"DISTRICT": 4, 
"FLOW": 1070, 
"HYDRANT": "", 
"HYDRANT_ID": "00001-0001", 
"LATITUDE": 36.155053000000002, 
"LOCATION": "1 & BOULDER NEC", 
"LONGITUDE": -95.993193000000005, 
"MAKE": "WATER", 
"MAPPAGE": "1124", 
"NAME": "", 
"NUM": 0, 
"OF_TURN": "L", 
"OF_TURNS": 20, 
"RESIDUAL_P": 0, 
"SEQ__": "0001", 
"SIZE": 52, 
"STATIC_PRE": 0, 
"STATION": 2, 
"TYPE": "", 
"TYPE0": "3-WAY", 
"VALVE_MAKE": "C521", 
"VALVE_SIZE": 60, 
"VALVE_TYPE": "GATE", 
"ZIPCODE": "74103"}


{"meta": {"limit": 5, "next": "/boundary/1.0/point/?near=36.1539%2C-95.9925%2C250m&sets=hydrants&limit=5&offset=5", "offset": 0, "previous": null, "total_count": 31}, 


"objects": [{"external_id": "00001-0001", "kind": "Hydrant", "metadata": {"ADDRESS": "", "ATLAS_PAGE": "00001", "CITY": "TULSA", "CLASS": "NA", "COMPLETED": 1, "CONDITION": "", "DATE_INSPE": "2003-08-08", "DATE_INSTA": null, "DIRECTION": "", "DISTRICT": 4, "FLOW": 1070, "HYDRANT": "", "HYDRANT_ID": "00001-0001", "LATITUDE": 36.155053000000002, "LOCATION": "1 & BOULDER NEC", "LONGITUDE": -95.993193000000005, "MAKE": "WATER", "MAPPAGE": "1124", "NAME": "", "NUM": 0, "OF_TURN": "L", "OF_TURNS": 20, "RESIDUAL_P": 0, "SEQ__": "0001", "SIZE": 52, "STATIC_PRE": 0, "STATION": 2, "TYPE": "", "TYPE0": "3-WAY", "VALVE_MAKE": "C521", "VALVE_SIZE": 60, "VALVE_TYPE": "GATE", "ZIPCODE": "74103"}, "name": "1 & BOULDER NEC", "point": {"coordinates": [[-95.993274, 36.155085]], "type": "MultiPoint"}, "resource_uri": "/boundary/1.0/point/1-boulder-nec-hydrant/", "set": "/boundary/1.0/point-set/hydrants/", "slug": "1-boulder-nec-hydrant"}, {"external_id": "00008-0034", "kind": "Hydrant", "metadata": {"ADDRESS": "101 E 2nd ST S", "ATLAS_PAGE": "00008", "CITY": "TULSA", "CLASS": "NA", "COMPLETED": 1, "CONDITION": "", "DATE_INSPE": "1999-04-29", "DATE_INSTA": null, "DIRECTION": "E", "DISTRICT": 4, "FLOW": 42502, "HYDRANT": "", "HYDRANT_ID": "00008-0034", "LATITUDE": 36.155625999999998, "LOCATION": "1 ST & BOSTON SWC", "LONGITUDE": -95.990700000000004, "MAKE": "DARLI", "MAPPAGE": "1124", "NAME": "2", "NUM": 101, "OF_TURN": "L", "OF_TURNS": 18, "RESIDUAL_P": 0, "SEQ__": "0034", "SIZE": 50, "STATIC_PRE": 0, "STATION": 2, "TYPE": "ST", "TYPE0": "5-WAY", "VALVE_MAKE": "C477", "VALVE_SIZE": 60, "VALVE_TYPE": "GATE", "ZIPCODE": "74103"}, "name": "1 ST & BOSTON SWC", "point": {"coordinates": [[-95.990780999999998, 36.155658000000003]], "type": "MultiPoint"}, "resource_uri": "/boundary/1.0/point/1-st-boston-swc-hydrant/", "set": "/boundary/1.0/point-set/hydrants/", "slug": "1-st-boston-swc-hydrant"}, {"external_id": "00001-0002", "kind": "Hydrant", "metadata": {"ADDRESS": "", "ATLAS_PAGE": "00001", "CITY": "TULSA", "CLASS": "NA", "COMPLETED": 1, "CONDITION": "", "DATE_INSPE": "2003-09-10", "DATE_INSTA": null, "DIRECTION": "", "DISTRICT": 4, "FLOW": 1070, "HYDRANT": "", "HYDRANT_ID": "00001-0002", "LATITUDE": 36.154747, "LOCATION": "1 ST & BOULDER SWC", "LONGITUDE": -95.993382999999994, "MAKE": "DARLI", "MAPPAGE": "1124", "NAME": "", "NUM": 0, "OF_TURN": "L", "OF_TURNS": 21, "RESIDUAL_P": 9, "SEQ__": "0002", "SIZE": 52, "STATIC_PRE": 5, "STATION": 2, "TYPE": "", "TYPE0": "3-WAY", "VALVE_MAKE": "C521", "VALVE_SIZE": 60, "VALVE_TYPE": "GATE", "ZIPCODE": "74103"}, "name": "1 ST & BOULDER SWC", "point": {"coordinates": [[-95.993463000000006, 36.154778999999998]], "type": "MultiPoint"}, "resource_uri": "/boundary/1.0/point/1-st-boulder-swc-hydrant/", "set": "/boundary/1.0/point-set/hydrants/", "slug": "1-st-boulder-swc-hydrant"}, {"external_id": "00006-0026", "kind": "Hydrant", "metadata": {"ADDRESS": "", "ATLAS_PAGE": "00006", "CITY": "TULSA", "CLASS": "NA", "COMPLETED": 1, "CONDITION": "", "DATE_INSPE": "1999-04-21", "DATE_INSTA": null, "DIRECTION": "", "DISTRICT": 4, "FLOW": 42502, "HYDRANT": "", "HYDRANT_ID": "00006-0026", "LATITUDE": 36.154440000000001, "LOCATION": "1 ST & CHEYENNE SEC", "LONGITUDE": -95.994223000000005, "MAKE": "DARLI", "MAPPAGE": "1074", "NAME": "", "NUM": 0, "OF_TURN": "L", "OF_TURNS": 40, "RESIDUAL_P": 0, "SEQ__": "0026", "SIZE": 60, "STATIC_PRE": 0, "STATION": 2, "TYPE": "", "TYPE0": "5-WAY", "VALVE_MAKE": "C485", "VALVE_SIZE": 100, "VALVE_TYPE": "GATE", "ZIPCODE": "74103"}, "name": "1 ST & CHEYENNE SEC", "point": {"coordinates": [[-95.994303000000002, 36.154471999999998]], "type": "MultiPoint"}, "resource_uri": "/boundary/1.0/point/1-st-cheyenne-sec-hydrant/", "set": "/boundary/1.0/point-set/hydrants/", "slug": "1-st-cheyenne-sec-hydrant"}, {"external_id": "00006-0025", "kind": "Hydrant", "metadata": {"ADDRESS": "", "ATLAS_PAGE": "00006", "CITY": "TULSA", "CLASS": "NA", "COMPLETED": 1, "CONDITION": "", "DATE_INSPE": "1999-04-21", "DATE_INSTA": null, "DIRECTION": "", "DISTRICT": 4, "FLOW": 42502, "HYDRANT": "", "HYDRANT_ID": "00006-0025", "LATITUDE": 36.154353, "LOCATION": "1 ST & CHEYENNE SWC", "LONGITUDE": -95.994547999999995, "MAKE": "DARLI", "MAPPAGE": "1074", "NAME": "", "NUM": 0, "OF_TURN": "L", "OF_TURNS": 30, "RESIDUAL_P": 0, "SEQ__": "0025", "SIZE": 42, "STATIC_PRE": 0, "STATION": 2, "TYPE": "", "TYPE0": "3-WAY", "VALVE_MAKE": "C485", "VALVE_SIZE": 100, "VALVE_TYPE": "GATE", "ZIPCODE": "74103"}, "name": "1 ST & CHEYENNE SWC", "point": {"coordinates": [[-95.994628000000006, 36.154384999999998]], "type": "MultiPoint"}, "resource_uri": "/boundary/1.0/point/1-st-cheyenne-swc-hydrant/", "set": "/boundary/1.0/point-set/hydrants/", "slug": "1-st-cheyenne-swc-hydrant"}]}